757933 847905 525
797071 568187 509
623313 671828 509
810003 72538 509
772485 778385 437
289784 316920 384
664079 644772 429
970208 924439 507
177940 681904 509
912420 73022 525
956551 383741 525
1735 143052 375
196857 550074 470
657127 250315 509
757037 707616 424
813856 213580 509
219344 450899 449
659111 100922 509
417640 111680 449
161403 329027 443
296763 896658 525
802632 540464 509
179868 592226 470
731622 221009 509
196744 399299 443
193407 292792 443
305424 460717 449
560483 304339 470
565383 534610 452
880517 371098 525
798346 249358 509
441948 121705 449
675838 906174 525
491607 350710 449
244170 780759 509
235234 749233 509
25769 42958 324
316973 248674 407
962514 810719 525
652885 447524 509
3802 852100 525
414268 767237 509
353644 339136 441
116341 94553 354
837224 530479 509
744384 547786 509
386067 898063 525
978479 572233 525
898514 636636 525
172922 804740 509
851301 856014 419
773906 263076 509
770524 788854 437
985881 905591 507
795614 705792 468
305641 996829 525
983529 875767 507
703741 508924 509
350312 599583 470
894467 848377 445
537381 7184 470
493874 21893 449
489742 801339 509
183306 84728 383
469544 637065 509
810425 361602 509
197678 896590 525
493227 727964 509
383191 423422 449
924964 320186 525
213710 767269 509
885139 673640 525
445808 572730 470
156626 309220 443
119982 844032 525
622418 549565 447
961926 613082 525
958264 175779 525
890707 695126 525
537923 61673 470
541032 913902 525
653647 910906 525
66431 962537 525
426481 877486 525
170319 218806 386
460142 200696 449
552588 415699 470
734850 564317 509
175657 908630 525
141736 597813 470
983580 987793 427
901227 528270 525
858312 557446 525
660102 655618 429
898701 243532 525
745394 967361 525
747039 749685 393
324326 128195 443
512519 58184 470
529501 988374 525
478795 310982 449
940198 400692 525
3083 885475 525
18865 809202 509
850340 167488 525
375283 579562 470
319029 153549 443
775355 938958 525
897087 153348 525
673280 404057 509
868003 6140 525
17371 386427 443
411844 307935 449
323630 633763 509
935756 802612 525
304415 264711 407
139181 997080 525
607609 967053 525
762932 829366 468
715527 27557 509
941410 158913 525
359656 398770 436
192548 430859 449
400541 373514 436
772779 2101 509
344030 878357 525
924580 645796 525
851653 692586 525
604275 475756 470
956796 169456 525
99022 850022 525
460986 536337 470
333864 37981 443
531699 756192 509
485255 605538 470
544504 59899 470
432241 624592 470
319599 864270 525
617312 106712 470
231926 889744 525
593700 883541 525
448817 67039 449
37122 439775 449
250535 328141 407
65264 707401 509
385616 902666 525
851298 899114 445
642088 354573 509
819092 852070 525
69324 878960 525
216667 308955 443
746568 911973 525
726518 971585 525
198027 553348 470
125905 703772 509
59824 671677 509
408008 66999 443
666256 334630 509
132909 834389 509
774160 650368 504
277565 723635 509
82022 473431 449
63756 503398 449
152808 784429 509
347701 318051 441
728318 320572 509
212461 395703 443
333018 56647 443
232848 103193 443
549122 82039 470
513232 384325 470
568491 846801 525
904695 697146 525
30246 341520 443
219311 425264 449
337947 371017 441
70586 360388 443
650250 366845 509
950060 163497 525
767865 872356 525
73581 496416 449
518592 689371 509
296342 317990 384
72589 366732 443
883427 307767 525
839170 525129 525
570832 924843 525
992714 372625 525
773875 724879 468
540623 139172 470
469384 43817 449
200677 732217 509
975904 206289 525
9638 759538 509
755127 349300 509
750033 884131 525
58782 215139 383
525199 20049 470
872032 463465 525
592027 497008 470
178511 378533 443
630535 68377 509
208022 21487 383
982776 196767 525
98347 213327 383
586404 208028 470
373003 761990 509
120972 370768 443
287577 735147 509
107041 105214 354
739045 603412 509
398712 686793 509
82978 642742 509
207358 699318 509
339670 281105 389
796938 565149 509
625664 454576 470
429820 997719 525
867662 794029 525
679559 927288 525
133651 961346 525
192994 663743 509
284933 16922 443
1356 414689 449
301294 826635 509
573192 997315 525
153710 549347 470
335236 134802 443
352457 93474 443
49986 807008 509
44905 884843 525
354638 242336 441
161018 957678 525
729778 76775 509
906898 971382 507
356175 350369 379
85363 83127 320
577558 336124 470
669779 286674 509
171470 940636 525
426130 522198 470
203946 784985 509
306700 917224 525
299889 547654 470
45069 245635 443
463983 938968 525
269622 864999 525
673102 743462 504
801235 952389 525
726068 279260 509
