81827 520946 470
733706 504666 509
926958 24946 525
55255 26763 340
774673 192615 509
875532 377145 525
344358 432928 449
284650 271047 389
604042 391960 470
813829 340047 509
743595 970376 525
557445 901974 525
369648 662701 509
723856 382370 509
659997 206938 509
77130 618123 470
392693 38065 443
170060 33011 383
102542 787329 509
49718 134684 354
328455 832624 509
725476 520844 509
827537 89070 509
838264 544976 525
827951 642062 504
508694 613824 470
124132 528056 470
305028 451964 449
221856 883356 525
799851 337585 509
973088 944565 458
923474 115675 525
377752 735168 509
829960 540794 509
246973 639295 509
784876 557090 509
57239 939178 525
845880 863315 419
43568 759609 509
745774 708058 424
709787 568445 509
112475 821646 509
124555 91917 354
367597 35890 443
689530 30195 509
740335 780143 468
369965 853223 525
89627 732553 509
938560 974373 507
294186 969283 525
84304 631694 509
610753 359238 470
313081 592400 470
408490 373951 436
902366 312551 525
695314 716199 504
40310 105531 351
233968 656761 509
465002 733047 509
846206 907978 445
851865 316086 525
200597 949578 525
955947 766493 525
720606 853118 525
303813 399325 441
558145 340131 470
285202 165845 443
530644 911152 525
927871 301645 525
512892 720850 509
657986 776534 504
526206 515385 439
118502 599982 470
515924 772698 509
878233 235417 525
792574 979570 525
191515 211936 373
218706 427919 449
517558 978697 525
531185 154216 470
870624 897205 445
44008 94003 351
361899 47390 443
613365 571335 434
958318 530293 525
883127 660614 525
5257 307180 443
363462 120383 443
353058 33234 443
836426 867931 525
595846 185623 470
922529 542743 525
81392 766495 509
1882 368036 443
210148 917603 525
991860 534707 525
996961 621291 525
710191 776440 468
795869 459968 509
496943 445990 444
513797 959216 525
725039 245791 509
482685 401719 449
666543 220915 509
493487 881517 525
946584 331493 525
604488 948134 525
115690 72016 354
244481 967885 525
984270 268404 525
189918 690330 509
584366 39803 470
619302 61042 470
236399 67616 443
872709 871761 432
476804 723404 509
802567 53149 509
285706 21448 443
640798 188927 509
531104 729024 509
459117 871169 525
353255 773062 509
652450 587417 509
701155 50063 509
789923 989465 525
240552 200790 443
34896 959911 525
811159 956229 525
371788 659791 509
91547 934652 525
942635 482676 525
60566 452061 449
365389 790013 509
54136 820586 509
423893 97309 449
198497 918389 525
889399 532249 525
813306 504838 509
526217 131999 470
601691 156798 470
49076 303598 443
131536 271989 443
662189 113674 509
22453 95930 351
819169 707714 468
669493 858024 525
482990 738612 509
704307 349150 509
543640 474820 470
84836 32012 351
361551 673663 509
565111 28279 470
583370 690378 509
212217 777749 509
607928 143700 470
852812 374080 525
792222 763509 468
64952 842674 525
468385 949563 525
305877 631489 509
78589 429097 449
544190 706424 509
332799 916380 525
389282 725205 509
599692 637657 509
245989 395502 441
520238 901224 525
217545 361058 443
9768 67550 340
164660 292844 443
463809 683632 509
52983 825412 509
605782 185501 470
289847 957487 525
260001 811883 509
780531 517702 509
159787 755756 509
181986 972467 525
623000 233690 470
233337 67351 443
792956 373482 509
890883 981266 507
774338 705356 468
284524 32398 443
529437 73408 470
647372 792425 504
693037 269922 509
522386 566787 452
539824 839719 525
326849 891751 525
859457 179829 525
775094 284640 509
965199 856611 507
782122 227351 509
548717 247390 470
600669 517422 452
535496 864544 525
523855 501991 470
459857 493316 444
254631 528546 470
264632 596476 470
632959 306718 509
357629 83550 443
331050 319908 384
478160 205013 449
345550 463480 449
221711 284754 443
908656 818179 525
182300 618976 470
61815 279232 443
769010 841657 525
937805 411038 525
427022 890864 525
56972 374768 443
101586 391944 443
167323 486144 449
573284 298753 470
342401 340284 335
245409 288112 407
359574 916142 525
291030 710626 509
59427 783826 509
594703 869458 525
546069 685871 509
722353 502200 509
524657 910895 525
561314 113831 470
298310 270167 407
574166 816734 509
196036 738976 509
42818 567615 470
820281 474133 509
255887 245501 363
183324 840902 525
401605 192808 443
560245 875023 525
578891 63334 470
111571 588324 470
384639 139220 443
253013 630638 509
535532 145457 470
783946 688709 504
448724 895316 525
163189 49043 383
959721 559696 525
64063 756503 509
337244 233015 407
109463 266444 443
389835 783530 509
452812 724643 509
